…
``` r
#clean the data
brfss_data <- brfss_smart2010 %>%
  janitor::clean_names() %>%
  rename(state = locationabbr, location = locationdesc) %>% #rename locationabbr and locationdesc
  filter(topic == "Overall Health") %>%
  filter(response %in% c("Poor","Fair","Good","Very good","Excellent")) %>%
  mutate(
    response = factor(response, levels = c("Poor","Fair","Good","Very good","Excellent"))
  )

brfss_data
```

    ## # A tibble: 10,625 × 23
    ##     year state location   class  topic question  response sample_size data_value
    ##    <int> <chr> <chr>      <chr>  <chr> <chr>     <fct>          <int>      <dbl>
    ##  1  2010 AL    AL - Jeff… Healt… Over… How is y… Excelle…          94       18.9
    ##  2  2010 AL    AL - Jeff… Healt… Over… How is y… Very go…         148       30  
    ##  3  2010 AL    AL - Jeff… Healt… Over… How is y… Good             208       33.1
    ##  4  2010 AL    AL - Jeff… Healt… Over… How is y… Fair             107       12.5
    ##  5  2010 AL    AL - Jeff… Healt… Over… How is y… Poor              45        5.5
    ##  6  2010 AL    AL - Mobi… Healt… Over… How is y… Excelle…          91       15.6
    ##  7  2010 AL    AL - Mobi… Healt… Over… How is y… Very go…         177       31.3
    ##  8  2010 AL    AL - Mobi… Healt… Over… How is y… Good             224       31.2
    ##  9  2010 AL    AL - Mobi… Healt… Over… How is y… Fair             120       15.5
    ## 10  2010 AL    AL - Mobi… Healt… Over… How is y… Poor              66        6.4
    ## # … with 10,615 more rows, and 14 more variables: confidence_limit_low <dbl>,
    ## #   confidence_limit_high <dbl>, display_order <int>, data_value_unit <chr>,
    ## #   data_value_type <chr>, data_value_footnote_symbol <chr>,
    ## #   data_value_footnote <chr>, data_source <chr>, class_id <chr>,
    ## #   topic_id <chr>, location_id <chr>, question_id <chr>, respid <chr>,
    ## #   geo_location <chr>
…
    ## `summarise()` has grouped output by 'year', 'state'. You can override using the `.groups` argument.

``` r
brfss_excellent
```

    ## # A tibble: 443 × 4
    ## # Groups:   year, state [443]
    ##     year state response  mean_value
    ##    <int> <chr> <fct>          <dbl>
    ##  1  2002 AK    Excellent       27.9
    ##  2  2002 AL    Excellent       18.5
    ##  3  2002 AR    Excellent       24.1
    ##  4  2002 AZ    Excellent       24.1
    ##  5  2002 CA    Excellent       22.7
    ##  6  2002 CO    Excellent       23.1
    ##  7  2002 CT    Excellent       29.1
    ##  8  2002 DC    Excellent       29.3
    ##  9  2002 DE    Excellent       20.9
    ## 10  2002 FL    Excellent       25.7
    ## # … with 433 more rows
…
head(accelerometer_data,1) #check whether data is with reasonable variable classes
```

    ## # A tibble: 1 × 6
    ##    week day_id day    minute activity day_kind
    ##   <dbl>  <dbl> <chr>   <dbl>    <dbl> <fct>   
    ## 1     1      1 Friday      1     88.4 0

``` r
accelerometer_data
```

    ## # A tibble: 50,400 × 6
    ##     week day_id day    minute activity day_kind
    ##    <dbl>  <dbl> <chr>   <dbl>    <dbl> <fct>   
    ##  1     1      1 Friday      1     88.4 0       
    ##  2     1      1 Friday      2     82.2 0       
    ##  3     1      1 Friday      3     64.4 0       
    ##  4     1      1 Friday      4     70.0 0       
    ##  5     1      1 Friday      5     75.0 0       
    ##  6     1      1 Friday      6     66.3 0       
    ##  7     1      1 Friday      7     53.8 0       
    ##  8     1      1 Friday      8     47.8 0       
    ##  9     1      1 Friday      9     55.5 0       
    ## 10     1      1 Friday     10     43.0 0       
    ## # … with 50,390 more rows
…
